(footprint "exposed_paste_autogen_bottom_pad"
	(version 20240108)
	(generator "kicad-footprint-generator")
	(layer "F.Cu")
	(attr smd)
	(pad "" smd rect
		(at -2 -2)
		(size 1.61 1.61)
		(layers "F.Paste")
	)
	(pad "" smd rect
		(at 2 -2)
		(size 1.61 1.61)
		(layers "F.Paste")
	)
	(pad "3" thru_hole circle
		(at -2 -2)
		(size 0.6 0.6)
		(drill 0.3)
		(property pad_prop_heatsink)
		(layers "*.Cu")
		(remove_unused_layers no)
	)
	(pad "3" smd rect
		(at -2 -2)
		(size 2 2)
		(property pad_prop_heatsink)
		(layers "F.Cu" "F.Mask")
		(zone_connect 2)
	)
	(pad "3" thru_hole circle
		(at 2 -2)
		(size 0.6 0.6)
		(drill 0.3)
		(property pad_prop_heatsink)
		(layers "*.Cu")
		(remove_unused_layers no)
	)
	(pad "3" smd rect
		(at 2 -2)
		(size 2 2)
		(property pad_prop_heatsink)
		(layers "F.Cu" "F.Mask")
		(zone_connect 2)
	)
	(pad "3" smd rect
		(at 2 -2)
		(size 3 3)
		(property pad_prop_heatsink)
		(layers "B.Cu" "B.Mask")
		(zone_connect 2)
	)
)
