(footprint "exposed_paste_autogen_inner2"
	(version 20240108)
	(generator "kicad-footprint-generator")
	(layer "F.Cu")
	(attr smd)
	(pad "" smd custom
		(at -1.833333 -1.833333)
		(size 0.491134 0.491134)
		(layers "F.Paste")
		(options
			(clearance outline)
			(anchor circle)
		)
		(primitives
			(gr_poly
				(pts
					(xy -0.294628 -0.155863)
					(xy -0.155863 -0.294628)
					(xy 0.294628 -0.294628)
					(xy 0.294628 0.294628)
					(xy -0.294628 0.294628)
				)
				(width 0)
			)
		)
	)
	(pad "" smd custom
		(at -1.833333 -1.1)
		(size 0.491134 0.491134)
		(layers "F.Paste")
		(options
			(clearance outline)
			(anchor circle)
		)
		(primitives
			(gr_poly
				(pts
					(xy -0.294628 -0.294628)
					(xy 0.294628 -0.294628)
					(xy 0.294628 0.294628)
					(xy -0.155863 0.294628)
					(xy -0.294628 0.155863)
				)
				(width 0)
			)
		)
	)
	(pad "" smd custom
		(at -1.833333 -0.366667)
		(size 0.491134 0.491134)
		(layers "F.Paste")
		(options
			(clearance outline)
			(anchor circle)
		)
		(primitives
			(gr_poly
				(pts
					(xy -0.294628 -0.155863)
					(xy -0.155863 -0.294628)
					(xy 0.294628 -0.294628)
					(xy 0.294628 0.294628)
					(xy -0.294628 0.294628)
				)
				(width 0)
			)
		)
	)
	(pad "" smd custom
		(at -1.833333 0.366667)
		(size 0.491134 0.491134)
		(layers "F.Paste")
		(options
			(clearance outline)
			(anchor circle)
		)
		(primitives
			(gr_poly
				(pts
					(xy -0.294628 -0.294628)
					(xy 0.294628 -0.294628)
					(xy 0.294628 0.294628)
					(xy -0.155863 0.294628)
					(xy -0.294628 0.155863)
				)
				(width 0)
			)
		)
	)
	(pad "" smd custom
		(at -1.833333 1.1)
		(size 0.491134 0.491134)
		(layers "F.Paste")
		(options
			(clearance outline)
			(anchor circle)
		)
		(primitives
			(gr_poly
				(pts
					(xy -0.294628 -0.155863)
					(xy -0.155863 -0.294628)
					(xy 0.294628 -0.294628)
					(xy 0.294628 0.294628)
					(xy -0.294628 0.294628)
				)
				(width 0)
			)
		)
	)
	(pad "" smd custom
		(at -1.833333 1.833333)
		(size 0.491134 0.491134)
		(layers "F.Paste")
		(options
			(clearance outline)
			(anchor circle)
		)
		(primitives
			(gr_poly
				(pts
					(xy -0.294628 -0.294628)
					(xy 0.294628 -0.294628)
					(xy 0.294628 0.294628)
					(xy -0.155863 0.294628)
					(xy -0.294628 0.155863)
				)
				(width 0)
			)
		)
	)
	(pad "" smd custom
		(at -1.1 -1.833333)
		(size 0.491134 0.491134)
		(layers "F.Paste")
		(options
			(clearance outline)
			(anchor circle)
		)
		(primitives
			(gr_poly
				(pts
					(xy -0.294628 -0.294628)
					(xy 0.155863 -0.294628)
					(xy 0.294628 -0.155863)
					(xy 0.294628 0.294628)
					(xy -0.294628 0.294628)
				)
				(width 0)
			)
		)
	)
	(pad "" smd custom
		(at -1.1 -1.1)
		(size 0.491134 0.491134)
		(layers "F.Paste")
		(options
			(clearance outline)
			(anchor circle)
		)
		(primitives
			(gr_poly
				(pts
					(xy -0.294628 -0.294628)
					(xy 0.294628 -0.294628)
					(xy 0.294628 0.155863)
					(xy 0.155863 0.294628)
					(xy -0.294628 0.294628)
				)
				(width 0)
			)
		)
	)
	(pad "" smd custom
		(at -1.1 -0.366667)
		(size 0.491134 0.491134)
		(layers "F.Paste")
		(options
			(clearance outline)
			(anchor circle)
		)
		(primitives
			(gr_poly
				(pts
					(xy -0.294628 -0.294628)
					(xy 0.155863 -0.294628)
					(xy 0.294628 -0.155863)
					(xy 0.294628 0.294628)
					(xy -0.294628 0.294628)
				)
				(width 0)
			)
		)
	)
	(pad "" smd custom
		(at -1.1 0.366667)
		(size 0.491134 0.491134)
		(layers "F.Paste")
		(options
			(clearance outline)
			(anchor circle)
		)
		(primitives
			(gr_poly
				(pts
					(xy -0.294628 -0.294628)
					(xy 0.294628 -0.294628)
					(xy 0.294628 0.155863)
					(xy 0.155863 0.294628)
					(xy -0.294628 0.294628)
				)
				(width 0)
			)
		)
	)
	(pad "" smd custom
		(at -1.1 1.1)
		(size 0.491134 0.491134)
		(layers "F.Paste")
		(options
			(clearance outline)
			(anchor circle)
		)
		(primitives
			(gr_poly
				(pts
					(xy -0.294628 -0.294628)
					(xy 0.155863 -0.294628)
					(xy 0.294628 -0.155863)
					(xy 0.294628 0.294628)
					(xy -0.294628 0.294628)
				)
				(width 0)
			)
		)
	)
	(pad "" smd custom
		(at -1.1 1.833333)
		(size 0.491134 0.491134)
		(layers "F.Paste")
		(options
			(clearance outline)
			(anchor circle)
		)
		(primitives
			(gr_poly
				(pts
					(xy -0.294628 -0.294628)
					(xy 0.294628 -0.294628)
					(xy 0.294628 0.155863)
					(xy 0.155863 0.294628)
					(xy -0.294628 0.294628)
				)
				(width 0)
			)
		)
	)
	(pad "" smd custom
		(at -0.366667 -1.833333)
		(size 0.491134 0.491134)
		(layers "F.Paste")
		(options
			(clearance outline)
			(anchor circle)
		)
		(primitives
			(gr_poly
				(pts
					(xy -0.294628 -0.155863)
					(xy -0.155863 -0.294628)
					(xy 0.294628 -0.294628)
					(xy 0.294628 0.294628)
					(xy -0.294628 0.294628)
				)
				(width 0)
			)
		)
	)
	(pad "" smd custom
		(at -0.366667 -1.1)
		(size 0.491134 0.491134)
		(layers "F.Paste")
		(options
			(clearance outline)
			(anchor circle)
		)
		(primitives
			(gr_poly
				(pts
					(xy -0.294628 -0.294628)
					(xy 0.294628 -0.294628)
					(xy 0.294628 0.294628)
					(xy -0.155863 0.294628)
					(xy -0.294628 0.155863)
				)
				(width 0)
			)
		)
	)
	(pad "" smd custom
		(at -0.366667 -0.366667)
		(size 0.491134 0.491134)
		(layers "F.Paste")
		(options
			(clearance outline)
			(anchor circle)
		)
		(primitives
			(gr_poly
				(pts
					(xy -0.294628 -0.155863)
					(xy -0.155863 -0.294628)
					(xy 0.294628 -0.294628)
					(xy 0.294628 0.294628)
					(xy -0.294628 0.294628)
				)
				(width 0)
			)
		)
	)
	(pad "" smd custom
		(at -0.366667 0.366667)
		(size 0.491134 0.491134)
		(layers "F.Paste")
		(options
			(clearance outline)
			(anchor circle)
		)
		(primitives
			(gr_poly
				(pts
					(xy -0.294628 -0.294628)
					(xy 0.294628 -0.294628)
					(xy 0.294628 0.294628)
					(xy -0.155863 0.294628)
					(xy -0.294628 0.155863)
				)
				(width 0)
			)
		)
	)
	(pad "" smd custom
		(at -0.366667 1.1)
		(size 0.491134 0.491134)
		(layers "F.Paste")
		(options
			(clearance outline)
			(anchor circle)
		)
		(primitives
			(gr_poly
				(pts
					(xy -0.294628 -0.155863)
					(xy -0.155863 -0.294628)
					(xy 0.294628 -0.294628)
					(xy 0.294628 0.294628)
					(xy -0.294628 0.294628)
				)
				(width 0)
			)
		)
	)
	(pad "" smd custom
		(at -0.366667 1.833333)
		(size 0.491134 0.491134)
		(layers "F.Paste")
		(options
			(clearance outline)
			(anchor circle)
		)
		(primitives
			(gr_poly
				(pts
					(xy -0.294628 -0.294628)
					(xy 0.294628 -0.294628)
					(xy 0.294628 0.294628)
					(xy -0.155863 0.294628)
					(xy -0.294628 0.155863)
				)
				(width 0)
			)
		)
	)
	(pad "" smd custom
		(at 0.366667 -1.833333)
		(size 0.491134 0.491134)
		(layers "F.Paste")
		(options
			(clearance outline)
			(anchor circle)
		)
		(primitives
			(gr_poly
				(pts
					(xy -0.294628 -0.294628)
					(xy 0.155863 -0.294628)
					(xy 0.294628 -0.155863)
					(xy 0.294628 0.294628)
					(xy -0.294628 0.294628)
				)
				(width 0)
			)
		)
	)
	(pad "" smd custom
		(at 0.366667 -1.1)
		(size 0.491134 0.491134)
		(layers "F.Paste")
		(options
			(clearance outline)
			(anchor circle)
		)
		(primitives
			(gr_poly
				(pts
					(xy -0.294628 -0.294628)
					(xy 0.294628 -0.294628)
					(xy 0.294628 0.155863)
					(xy 0.155863 0.294628)
					(xy -0.294628 0.294628)
				)
				(width 0)
			)
		)
	)
	(pad "" smd custom
		(at 0.366667 -0.366667)
		(size 0.491134 0.491134)
		(layers "F.Paste")
		(options
			(clearance outline)
			(anchor circle)
		)
		(primitives
			(gr_poly
				(pts
					(xy -0.294628 -0.294628)
					(xy 0.155863 -0.294628)
					(xy 0.294628 -0.155863)
					(xy 0.294628 0.294628)
					(xy -0.294628 0.294628)
				)
				(width 0)
			)
		)
	)
	(pad "" smd custom
		(at 0.366667 0.366667)
		(size 0.491134 0.491134)
		(layers "F.Paste")
		(options
			(clearance outline)
			(anchor circle)
		)
		(primitives
			(gr_poly
				(pts
					(xy -0.294628 -0.294628)
					(xy 0.294628 -0.294628)
					(xy 0.294628 0.155863)
					(xy 0.155863 0.294628)
					(xy -0.294628 0.294628)
				)
				(width 0)
			)
		)
	)
	(pad "" smd custom
		(at 0.366667 1.1)
		(size 0.491134 0.491134)
		(layers "F.Paste")
		(options
			(clearance outline)
			(anchor circle)
		)
		(primitives
			(gr_poly
				(pts
					(xy -0.294628 -0.294628)
					(xy 0.155863 -0.294628)
					(xy 0.294628 -0.155863)
					(xy 0.294628 0.294628)
					(xy -0.294628 0.294628)
				)
				(width 0)
			)
		)
	)
	(pad "" smd custom
		(at 0.366667 1.833333)
		(size 0.491134 0.491134)
		(layers "F.Paste")
		(options
			(clearance outline)
			(anchor circle)
		)
		(primitives
			(gr_poly
				(pts
					(xy -0.294628 -0.294628)
					(xy 0.294628 -0.294628)
					(xy 0.294628 0.155863)
					(xy 0.155863 0.294628)
					(xy -0.294628 0.294628)
				)
				(width 0)
			)
		)
	)
	(pad "" smd custom
		(at 1.1 -1.833333)
		(size 0.491134 0.491134)
		(layers "F.Paste")
		(options
			(clearance outline)
			(anchor circle)
		)
		(primitives
			(gr_poly
				(pts
					(xy -0.294628 -0.155863)
					(xy -0.155863 -0.294628)
					(xy 0.294628 -0.294628)
					(xy 0.294628 0.294628)
					(xy -0.294628 0.294628)
				)
				(width 0)
			)
		)
	)
	(pad "" smd custom
		(at 1.1 -1.1)
		(size 0.491134 0.491134)
		(layers "F.Paste")
		(options
			(clearance outline)
			(anchor circle)
		)
		(primitives
			(gr_poly
				(pts
					(xy -0.294628 -0.294628)
					(xy 0.294628 -0.294628)
					(xy 0.294628 0.294628)
					(xy -0.155863 0.294628)
					(xy -0.294628 0.155863)
				)
				(width 0)
			)
		)
	)
	(pad "" smd custom
		(at 1.1 -0.366667)
		(size 0.491134 0.491134)
		(layers "F.Paste")
		(options
			(clearance outline)
			(anchor circle)
		)
		(primitives
			(gr_poly
				(pts
					(xy -0.294628 -0.155863)
					(xy -0.155863 -0.294628)
					(xy 0.294628 -0.294628)
					(xy 0.294628 0.294628)
					(xy -0.294628 0.294628)
				)
				(width 0)
			)
		)
	)
	(pad "" smd custom
		(at 1.1 0.366667)
		(size 0.491134 0.491134)
		(layers "F.Paste")
		(options
			(clearance outline)
			(anchor circle)
		)
		(primitives
			(gr_poly
				(pts
					(xy -0.294628 -0.294628)
					(xy 0.294628 -0.294628)
					(xy 0.294628 0.294628)
					(xy -0.155863 0.294628)
					(xy -0.294628 0.155863)
				)
				(width 0)
			)
		)
	)
	(pad "" smd custom
		(at 1.1 1.1)
		(size 0.491134 0.491134)
		(layers "F.Paste")
		(options
			(clearance outline)
			(anchor circle)
		)
		(primitives
			(gr_poly
				(pts
					(xy -0.294628 -0.155863)
					(xy -0.155863 -0.294628)
					(xy 0.294628 -0.294628)
					(xy 0.294628 0.294628)
					(xy -0.294628 0.294628)
				)
				(width 0)
			)
		)
	)
	(pad "" smd custom
		(at 1.1 1.833333)
		(size 0.491134 0.491134)
		(layers "F.Paste")
		(options
			(clearance outline)
			(anchor circle)
		)
		(primitives
			(gr_poly
				(pts
					(xy -0.294628 -0.294628)
					(xy 0.294628 -0.294628)
					(xy 0.294628 0.294628)
					(xy -0.155863 0.294628)
					(xy -0.294628 0.155863)
				)
				(width 0)
			)
		)
	)
	(pad "" smd custom
		(at 1.833333 -1.833333)
		(size 0.491134 0.491134)
		(layers "F.Paste")
		(options
			(clearance outline)
			(anchor circle)
		)
		(primitives
			(gr_poly
				(pts
					(xy -0.294628 -0.294628)
					(xy 0.155863 -0.294628)
					(xy 0.294628 -0.155863)
					(xy 0.294628 0.294628)
					(xy -0.294628 0.294628)
				)
				(width 0)
			)
		)
	)
	(pad "" smd custom
		(at 1.833333 -1.1)
		(size 0.491134 0.491134)
		(layers "F.Paste")
		(options
			(clearance outline)
			(anchor circle)
		)
		(primitives
			(gr_poly
				(pts
					(xy -0.294628 -0.294628)
					(xy 0.294628 -0.294628)
					(xy 0.294628 0.155863)
					(xy 0.155863 0.294628)
					(xy -0.294628 0.294628)
				)
				(width 0)
			)
		)
	)
	(pad "" smd custom
		(at 1.833333 -0.366667)
		(size 0.491134 0.491134)
		(layers "F.Paste")
		(options
			(clearance outline)
			(anchor circle)
		)
		(primitives
			(gr_poly
				(pts
					(xy -0.294628 -0.294628)
					(xy 0.155863 -0.294628)
					(xy 0.294628 -0.155863)
					(xy 0.294628 0.294628)
					(xy -0.294628 0.294628)
				)
				(width 0)
			)
		)
	)
	(pad "" smd custom
		(at 1.833333 0.366667)
		(size 0.491134 0.491134)
		(layers "F.Paste")
		(options
			(clearance outline)
			(anchor circle)
		)
		(primitives
			(gr_poly
				(pts
					(xy -0.294628 -0.294628)
					(xy 0.294628 -0.294628)
					(xy 0.294628 0.155863)
					(xy 0.155863 0.294628)
					(xy -0.294628 0.294628)
				)
				(width 0)
			)
		)
	)
	(pad "" smd custom
		(at 1.833333 1.1)
		(size 0.491134 0.491134)
		(layers "F.Paste")
		(options
			(clearance outline)
			(anchor circle)
		)
		(primitives
			(gr_poly
				(pts
					(xy -0.294628 -0.294628)
					(xy 0.155863 -0.294628)
					(xy 0.294628 -0.155863)
					(xy 0.294628 0.294628)
					(xy -0.294628 0.294628)
				)
				(width 0)
			)
		)
	)
	(pad "" smd custom
		(at 1.833333 1.833333)
		(size 0.491134 0.491134)
		(layers "F.Paste")
		(options
			(clearance outline)
			(anchor circle)
		)
		(primitives
			(gr_poly
				(pts
					(xy -0.294628 -0.294628)
					(xy 0.294628 -0.294628)
					(xy 0.294628 0.155863)
					(xy 0.155863 0.294628)
					(xy -0.294628 0.294628)
				)
				(width 0)
			)
		)
	)
	(pad "3" thru_hole circle
		(at -2.2 -2.2)
		(size 0.6 0.6)
		(drill 0.3)
		(property pad_prop_heatsink)
		(layers "*.Cu")
		(remove_unused_layers no)
	)
	(pad "3" thru_hole circle
		(at -2.2 -0.733333)
		(size 0.6 0.6)
		(drill 0.3)
		(property pad_prop_heatsink)
		(layers "*.Cu")
		(remove_unused_layers no)
	)
	(pad "3" thru_hole circle
		(at -2.2 0.733333)
		(size 0.6 0.6)
		(drill 0.3)
		(property pad_prop_heatsink)
		(layers "*.Cu")
		(remove_unused_layers no)
	)
	(pad "3" thru_hole circle
		(at -2.2 2.2)
		(size 0.6 0.6)
		(drill 0.3)
		(property pad_prop_heatsink)
		(layers "*.Cu")
		(remove_unused_layers no)
	)
	(pad "3" thru_hole circle
		(at -0.733333 -2.2)
		(size 0.6 0.6)
		(drill 0.3)
		(property pad_prop_heatsink)
		(layers "*.Cu")
		(remove_unused_layers no)
	)
	(pad "3" thru_hole circle
		(at -0.733333 -0.733333)
		(size 0.6 0.6)
		(drill 0.3)
		(property pad_prop_heatsink)
		(layers "*.Cu")
		(remove_unused_layers no)
	)
	(pad "3" thru_hole circle
		(at -0.733333 0.733333)
		(size 0.6 0.6)
		(drill 0.3)
		(property pad_prop_heatsink)
		(layers "*.Cu")
		(remove_unused_layers no)
	)
	(pad "3" thru_hole circle
		(at -0.733333 2.2)
		(size 0.6 0.6)
		(drill 0.3)
		(property pad_prop_heatsink)
		(layers "*.Cu")
		(remove_unused_layers no)
	)
	(pad "3" smd rect
		(at 0 0)
		(size 5 5)
		(property pad_prop_heatsink)
		(layers "F.Cu" "F.Mask")
		(zone_connect 2)
	)
	(pad "3" smd rect
		(at 0 0)
		(size 5 5)
		(property pad_prop_heatsink)
		(layers "B.Cu")
		(zone_connect 2)
	)
	(pad "3" thru_hole circle
		(at 0.733333 -2.2)
		(size 0.6 0.6)
		(drill 0.3)
		(property pad_prop_heatsink)
		(layers "*.Cu")
		(remove_unused_layers no)
	)
	(pad "3" thru_hole circle
		(at 0.733333 -0.733333)
		(size 0.6 0.6)
		(drill 0.3)
		(property pad_prop_heatsink)
		(layers "*.Cu")
		(remove_unused_layers no)
	)
	(pad "3" thru_hole circle
		(at 0.733333 0.733333)
		(size 0.6 0.6)
		(drill 0.3)
		(property pad_prop_heatsink)
		(layers "*.Cu")
		(remove_unused_layers no)
	)
	(pad "3" thru_hole circle
		(at 0.733333 2.2)
		(size 0.6 0.6)
		(drill 0.3)
		(property pad_prop_heatsink)
		(layers "*.Cu")
		(remove_unused_layers no)
	)
	(pad "3" thru_hole circle
		(at 2.2 -2.2)
		(size 0.6 0.6)
		(drill 0.3)
		(property pad_prop_heatsink)
		(layers "*.Cu")
		(remove_unused_layers no)
	)
	(pad "3" thru_hole circle
		(at 2.2 -0.733333)
		(size 0.6 0.6)
		(drill 0.3)
		(property pad_prop_heatsink)
		(layers "*.Cu")
		(remove_unused_layers no)
	)
	(pad "3" thru_hole circle
		(at 2.2 0.733333)
		(size 0.6 0.6)
		(drill 0.3)
		(property pad_prop_heatsink)
		(layers "*.Cu")
		(remove_unused_layers no)
	)
	(pad "3" thru_hole circle
		(at 2.2 2.2)
		(size 0.6 0.6)
		(drill 0.3)
		(property pad_prop_heatsink)
		(layers "*.Cu")
		(remove_unused_layers no)
	)
)
