(footprint "test_rotate_arc"
	(version 20240108)
	(generator "kicad-footprint-generator")
	(layer "F.Cu")
	(attr smd)
	(fp_arc
		(start 2.258819 -0.034074)
		(mid 1.5 -0.133975)
		(end 1.034074 -0.741181)
		(stroke
			(width 0.12)
			(type solid)
		)
		(layer "F.SilkS")
	)
	(fp_arc
		(start 2.309329 0.417738)
		(mid 1.55051 0.517638)
		(end 0.943304 0.051712)
		(stroke
			(width 0.12)
			(type solid)
		)
		(layer "F.SilkS")
	)
	(fp_arc
		(start 2.326967 -0.483564)
		(mid 1.619861 -0.776457)
		(end 1.326967 -1.483564)
		(stroke
			(width 0.12)
			(type solid)
		)
		(layer "F.SilkS")
	)
	(fp_arc
		(start 2.475056 0.841081)
		(mid 1.767949 1.133975)
		(end 1.060842 0.841081)
		(stroke
			(width 0.12)
			(type solid)
		)
		(layer "F.SilkS")
	)
	(fp_arc
		(start 2.50913 -0.9001)
		(mid 1.901924 -1.366025)
		(end 1.802023 -2.124844)
		(stroke
			(width 0.12)
			(type solid)
		)
		(layer "F.SilkS")
	)
	(fp_arc
		(start 2.744705 1.207107)
		(mid 2.137499 1.673033)
		(end 1.37868 1.573132)
		(stroke
			(width 0.12)
			(type solid)
		)
		(layer "F.SilkS")
	)
	(fp_arc
		(start 2.792893 -1.255295)
		(mid 2.326967 -1.862501)
		(end 2.426868 -2.62132)
		(stroke
			(width 0.12)
			(type solid)
		)
		(layer "F.SilkS")
	)
	(fp_arc
		(start 3.0999 1.49087)
		(mid 2.633975 2.098076)
		(end 1.875156 2.197977)
		(stroke
			(width 0.12)
			(type solid)
		)
		(layer "F.SilkS")
	)
	(fp_arc
		(start 3.158919 -1.524944)
		(mid 2.866025 -2.232051)
		(end 3.158919 -2.939158)
		(stroke
			(width 0.12)
			(type solid)
		)
		(layer "F.SilkS")
	)
	(fp_arc
		(start 3.516436 1.673033)
		(mid 3.223543 2.380139)
		(end 2.516436 2.673033)
		(stroke
			(width 0.12)
			(type solid)
		)
		(layer "F.SilkS")
	)
	(fp_arc
		(start 3.582262 -1.690671)
		(mid 3.482362 -2.44949)
		(end 3.948288 -3.056696)
		(stroke
			(width 0.12)
			(type solid)
		)
		(layer "F.SilkS")
	)
	(fp_arc
		(start 3.965926 1.741181)
		(mid 3.866025 2.5)
		(end 3.258819 2.965926)
		(stroke
			(width 0.12)
			(type solid)
		)
		(layer "F.SilkS")
	)
	(fp_arc
		(start 4.034074 -1.741181)
		(mid 4.133975 -2.5)
		(end 4.741181 -2.965926)
		(stroke
			(width 0.12)
			(type solid)
		)
		(layer "F.SilkS")
	)
	(fp_arc
		(start 4.417738 1.690671)
		(mid 4.517638 2.44949)
		(end 4.051712 3.056696)
		(stroke
			(width 0.12)
			(type solid)
		)
		(layer "F.SilkS")
	)
	(fp_arc
		(start 4.483564 -1.673033)
		(mid 4.776457 -2.380139)
		(end 5.483564 -2.673033)
		(stroke
			(width 0.12)
			(type solid)
		)
		(layer "F.SilkS")
	)
	(fp_arc
		(start 4.841081 1.524944)
		(mid 5.133975 2.232051)
		(end 4.841081 2.939158)
		(stroke
			(width 0.12)
			(type solid)
		)
		(layer "F.SilkS")
	)
	(fp_arc
		(start 4.9001 -1.49087)
		(mid 5.366025 -2.098076)
		(end 6.124844 -2.197977)
		(stroke
			(width 0.12)
			(type solid)
		)
		(layer "F.SilkS")
	)
	(fp_arc
		(start 5.207107 1.255295)
		(mid 5.673033 1.862501)
		(end 5.573132 2.62132)
		(stroke
			(width 0.12)
			(type solid)
		)
		(layer "F.SilkS")
	)
	(fp_arc
		(start 5.255295 -1.207107)
		(mid 5.862501 -1.673033)
		(end 6.62132 -1.573132)
		(stroke
			(width 0.12)
			(type solid)
		)
		(layer "F.SilkS")
	)
	(fp_arc
		(start 5.49087 0.9001)
		(mid 6.098076 1.366025)
		(end 6.197977 2.124844)
		(stroke
			(width 0.12)
			(type solid)
		)
		(layer "F.SilkS")
	)
	(fp_arc
		(start 5.524944 -0.841081)
		(mid 6.232051 -1.133975)
		(end 6.939158 -0.841081)
		(stroke
			(width 0.12)
			(type solid)
		)
		(layer "F.SilkS")
	)
	(fp_arc
		(start 5.673033 0.483564)
		(mid 6.380139 0.776457)
		(end 6.673033 1.483564)
		(stroke
			(width 0.12)
			(type solid)
		)
		(layer "F.SilkS")
	)
	(fp_arc
		(start 5.690671 -0.417738)
		(mid 6.44949 -0.517638)
		(end 7.056696 -0.051712)
		(stroke
			(width 0.12)
			(type solid)
		)
		(layer "F.SilkS")
	)
	(fp_arc
		(start 5.741181 0.034074)
		(mid 6.5 0.133975)
		(end 6.965926 0.741181)
		(stroke
			(width 0.12)
			(type solid)
		)
		(layer "F.SilkS")
	)
)
